<define-tag pagetitle>DSA-4609-1 python-apt</define-tag>
<define-tag report_date>2020-1-23</define-tag>
<define-tag secrefs>CVE-2019-15795 CVE-2019-15796 Bug#944696</define-tag>
<define-tag packages>python-apt</define-tag>
<define-tag isvulnerable>yes</define-tag>
<define-tag fixed>yes</define-tag>
<define-tag fixed-section>no</define-tag>

#use wml::debian::security



</dl>
