<define-tag pagetitle>DSA-4807-1 openssl</define-tag>
<define-tag report_date>2020-12-08</define-tag>
<define-tag secrefs>CVE-2020-1971</define-tag>
<define-tag packages>openssl</define-tag>
<define-tag isvulnerable>yes</define-tag>
<define-tag fixed>yes</define-tag>
<define-tag fixed-section>no</define-tag>

#use wml::debian::security



</dl>
