<define-tag pagetitle>DLA-804-1 libgd2</define-tag>
<define-tag report_date>2017-1-29</define-tag>
<define-tag secrefs>CVE-2016-9317 CVE-2016-10167 CVE-2016-10168</define-tag>
<define-tag packages>libgd2</define-tag>
<define-tag isvulnerable>yes</define-tag>
<define-tag fixed>yes</define-tag>
<define-tag fixed-section>no</define-tag>

#use wml::debian::security

