<define-tag pagetitle>DLA-1221-1 ruby1.9.1</define-tag>
<define-tag report_date>2017-12-25</define-tag>
<define-tag secrefs>CVE-2017-17405 CVE-2017-17790</define-tag>
<define-tag packages>ruby1.9.1</define-tag>
<define-tag isvulnerable>yes</define-tag>
<define-tag fixed>yes</define-tag>
<define-tag fixed-section>no</define-tag>

#use wml::debian::security

