<define-tag pagetitle>DLA-1126-1 libxfont</define-tag>
<define-tag report_date>2017-10-7</define-tag>
<define-tag secrefs>CVE-2017-13720 CVE-2017-13722</define-tag>
<define-tag packages>libxfont</define-tag>
<define-tag isvulnerable>yes</define-tag>
<define-tag fixed>yes</define-tag>
<define-tag fixed-section>no</define-tag>

#use wml::debian::security

