<define-tag pagetitle>DLA-1065-1 fontforge</define-tag>
<define-tag report_date>2017-8-26</define-tag>
<define-tag secrefs>CVE-2017-11568 CVE-2017-11569 CVE-2017-11571 CVE-2017-11572 CVE-2017-11574 CVE-2017-11575 CVE-2017-11576 CVE-2017-11577</define-tag>
<define-tag packages>fontforge</define-tag>
<define-tag isvulnerable>yes</define-tag>
<define-tag fixed>yes</define-tag>
<define-tag fixed-section>no</define-tag>

#use wml::debian::security

