<define-tag pagetitle>DLA-1068-1 git</define-tag>
<define-tag report_date>2017-8-27</define-tag>
<define-tag secrefs>CVE-2017-1000117</define-tag>
<define-tag packages>git</define-tag>
<define-tag isvulnerable>yes</define-tag>
<define-tag fixed>yes</define-tag>
<define-tag fixed-section>no</define-tag>

#use wml::debian::security

