<define-tag pagetitle>DLA-2073-1 transfig</define-tag>
<define-tag report_date>2020-01-23</define-tag>
<define-tag secrefs>CVE-2018-16140 CVE-2019-14275 CVE-2019-19555</define-tag>
<define-tag packages>transfig</define-tag>
<define-tag isvulnerable>yes</define-tag>
<define-tag fixed>yes</define-tag>
<define-tag fixed-section>no</define-tag>

#use wml::debian::security

