<define-tag pagetitle>DLA-2423-1 wireshark</define-tag>
<define-tag report_date>2020-10-31</define-tag>
<define-tag secrefs>CVE-2019-10894 CVE-2019-10895 CVE-2019-10896 CVE-2019-10899 CVE-2019-10901 CVE-2019-10903 CVE-2019-12295 Bug#926718 Bug#929446</define-tag>
<define-tag packages>wireshark</define-tag>
<define-tag isvulnerable>yes</define-tag>
<define-tag fixed>yes</define-tag>
<define-tag fixed-section>no</define-tag>

#use wml::debian::security

