<define-tag pagetitle>DLA-2453-1 restic</define-tag>
<define-tag report_date>2020-11-17</define-tag>
<define-tag secrefs>CVE-2020-9283</define-tag>
<define-tag packages>restic</define-tag>
<define-tag isvulnerable>yes</define-tag>
<define-tag fixed>yes</define-tag>
<define-tag fixed-section>no</define-tag>

#use wml::debian::security

