<define-tag pagetitle>DLA-2123-1 pure-ftpd</define-tag>
<define-tag report_date>2020-02-27</define-tag>
<define-tag secrefs>CVE-2020-9274 Bug#952666</define-tag>
<define-tag packages>pure-ftpd</define-tag>
<define-tag isvulnerable>yes</define-tag>
<define-tag fixed>yes</define-tag>
<define-tag fixed-section>no</define-tag>

#use wml::debian::security

