<define-tag pagetitle>DLA-2176-1 inetutils</define-tag>
<define-tag report_date>2020-04-14</define-tag>
<define-tag secrefs>CVE-2020-10188 Bug#956084</define-tag>
<define-tag packages>inetutils</define-tag>
<define-tag isvulnerable>yes</define-tag>
<define-tag fixed>yes</define-tag>
<define-tag fixed-section>no</define-tag>

#use wml::debian::security

