<define-tag pagetitle>DLA-1507-1 libapache2-mod-perl2</define-tag>
<define-tag report_date>2018-9-18</define-tag>
<define-tag secrefs>CVE-2011-2767 Bug#644169</define-tag>
<define-tag packages>libapache2-mod-perl2</define-tag>
<define-tag isvulnerable>yes</define-tag>
<define-tag fixed>yes</define-tag>
<define-tag fixed-section>no</define-tag>

#use wml::debian::security

