<define-tag pagetitle>DSA-4526-1 opendmarc</define-tag>
<define-tag report_date>2019-9-19</define-tag>
<define-tag secrefs>CVE-2019-16378 Bug#940081</define-tag>
<define-tag packages>opendmarc</define-tag>
<define-tag isvulnerable>yes</define-tag>
<define-tag fixed>yes</define-tag>
<define-tag fixed-section>no</define-tag>

#use wml::debian::security



</dl>
