<define-tag pagetitle>DLA-2046-1 opensc</define-tag>
<define-tag report_date>2019-12-26</define-tag>
<define-tag secrefs>CVE-2019-19479</define-tag>
<define-tag packages>opensc</define-tag>
<define-tag isvulnerable>yes</define-tag>
<define-tag fixed>yes</define-tag>
<define-tag fixed-section>no</define-tag>

#use wml::debian::security

