<define-tag pagetitle>DLA-1651-1 libgd2</define-tag>
<define-tag report_date>2019-1-30</define-tag>
<define-tag secrefs>CVE-2018-5711 CVE-2018-1000222 CVE-2019-6977 CVE-2019-6978</define-tag>
<define-tag packages>libgd2</define-tag>
<define-tag isvulnerable>yes</define-tag>
<define-tag fixed>yes</define-tag>
<define-tag fixed-section>no</define-tag>

#use wml::debian::security

