<define-tag pagetitle>DLA-1977-1 libvncserver</define-tag>
<define-tag report_date>2019-10-30</define-tag>
<define-tag secrefs>CVE-2019-15681 Bug#943793</define-tag>
<define-tag packages>libvncserver</define-tag>
<define-tag isvulnerable>yes</define-tag>
<define-tag fixed>yes</define-tag>
<define-tag fixed-section>no</define-tag>

#use wml::debian::security

