<define-tag pagetitle>DLA-1843-1 pdns</define-tag>
<define-tag report_date>2019-07-03</define-tag>
<define-tag secrefs>CVE-2019-10162 CVE-2019-10163</define-tag>
<define-tag packages>pdns</define-tag>
<define-tag isvulnerable>yes</define-tag>
<define-tag fixed>yes</define-tag>
<define-tag fixed-section>no</define-tag>

#use wml::debian::security

