<define-tag pagetitle>DLA-1855-1 exiv2</define-tag>
<define-tag report_date>2019-07-19</define-tag>
<define-tag secrefs>CVE-2019-13504</define-tag>
<define-tag packages>exiv2</define-tag>
<define-tag isvulnerable>yes</define-tag>
<define-tag fixed>yes</define-tag>
<define-tag fixed-section>no</define-tag>

#use wml::debian::security
