<define-tag pagetitle>DLA-563-1 libgd2</define-tag>
<define-tag report_date>2016-7-26</define-tag>
<define-tag secrefs>CVE-2016-6161</define-tag>
<define-tag packages>libgd2</define-tag>
<define-tag isvulnerable>yes</define-tag>
<define-tag fixed>yes</define-tag>
<define-tag fixed-section>no</define-tag>

#use wml::debian::security

