<define-tag pagetitle>DLA-616-1 curl</define-tag>
<define-tag report_date>2016-9-9</define-tag>
<define-tag secrefs>CVE-2016-7141 Bug#836918</define-tag>
<define-tag packages>curl</define-tag>
<define-tag isvulnerable>yes</define-tag>
<define-tag fixed>yes</define-tag>
<define-tag fixed-section>no</define-tag>

#use wml::debian::security

