<define-tag pagetitle>DLA-689-1 qemu-kvm</define-tag>
<define-tag report_date>2016-10-30</define-tag>
<define-tag secrefs>CVE-2016-7909 CVE-2016-8909 CVE-2016-8910 Bug#839834 Bug#841950 Bug#841955 Bug#842455 Bug#842463</define-tag>
<define-tag packages>qemu-kvm</define-tag>
<define-tag isvulnerable>yes</define-tag>
<define-tag fixed>yes</define-tag>
<define-tag fixed-section>no</define-tag>

#use wml::debian::security

